G04 CAM350 V9.5 (Build 208) Date:  Fri Jan 28 16:59:06 2022 *
G04 Database: d:\baza\svetovie_tehn\28-01-22[1]\dalibusps-p03f-v01.cam *
G04 Layer 4: Maskbot *
%FSLAX44Y44*%
%MOMM*%
%SFA1.000B1.000*%

%MIA0B0*%
%IPPOS*%
%AMROUNDEDRECTD84*
20,1,1.00000,0.00000,1.10500,0.00000,-1.10500,0.00000*
20,1,2.21000,0.00000,0.50000,0.00000,-0.50000,0.00000*
1,1,1.21000,-0.50000,-0.50000*
1,1,1.21000,-0.50000,0.50000*
1,1,1.21000,0.50000,0.50000*
1,1,1.21000,0.50000,-0.50000*
%
%ADD31C,0.50000*%
%ADD63C,2.21000*%
%ADD64C,2.01000*%
%ADD65R,2.01000X2.01000*%
%ADD66ROUNDEDRECTD84*%
%ADD67O,2.21000X1.71000*%
%ADD68C,2.71000*%
%ADD69R,1.71000X2.21000*%
%ADD74O,1.71000X2.21000*%
%ADD75R,1.81000X1.81000*%
%ADD76C,1.81000*%
%LNMaskbot*%
%LPD*%
G54D63*
X609000Y34000D03*
X509000D03*
X30000Y302000D03*
Y202000D03*
X520250Y303750D03*
Y257750D03*
X472750Y275250D03*
Y305250D03*
X361750Y251098D03*
X411750D03*
X603827Y136050D03*
X544427Y107950D03*
X468227D03*
Y146050D03*
X603827Y106050D03*
X646000Y215250D03*
Y165250D03*
G54D64*
X346900Y174150D03*
X372300D03*
X397700D03*
X423100D03*
X346900Y97950D03*
X372300D03*
X397700D03*
G54D65*
X423100D03*
G54D66*
X544427Y184150D03*
G54D67*
X406500Y24250D03*
Y49250D03*
X659342Y22000D03*
Y47000D03*
X328000Y23750D03*
Y48750D03*
G54D68*
X167500Y110875D03*
X267500D03*
X86750Y297000D03*
Y197000D03*
X250000Y60000D03*
X175000Y38000D03*
X37500Y90000D03*
Y140000D03*
Y40000D03*
X825000Y137500D03*
Y87500D03*
Y237500D03*
Y187500D03*
X188500Y295000D03*
Y165000D03*
X288500Y295000D03*
Y165000D03*
X124000Y274000D03*
X146000Y199000D03*
G54D69*
X810000Y292500D03*
G54D74*
X835000D03*
G54D75*
X664800Y292750D03*
G54D76*
X639400D03*
X614000D03*
G54D63*
X1469000Y34000D03*
X1369000D03*
X890000Y302000D03*
Y202000D03*
X1380250Y303750D03*
Y257750D03*
X1332750Y275250D03*
Y305250D03*
X1221750Y251098D03*
X1271750D03*
X1463827Y136050D03*
X1404427Y107950D03*
X1328227D03*
Y146050D03*
X1463827Y106050D03*
X1506000Y215250D03*
Y165250D03*
G54D64*
X1206900Y174150D03*
X1232300D03*
X1257700D03*
X1283100D03*
X1206900Y97950D03*
X1232300D03*
X1257700D03*
G54D65*
X1283100D03*
G54D66*
X1404427Y184150D03*
G54D67*
X1266500Y24250D03*
Y49250D03*
X1519342Y22000D03*
Y47000D03*
X1188000Y23750D03*
Y48750D03*
G54D68*
X1027500Y110875D03*
X1127500D03*
X946750Y297000D03*
Y197000D03*
X1110000Y60000D03*
X1035000Y38000D03*
X897500Y90000D03*
Y140000D03*
Y40000D03*
X1685000Y137500D03*
Y87500D03*
Y237500D03*
Y187500D03*
X1048500Y295000D03*
Y165000D03*
X1148500Y295000D03*
Y165000D03*
X984000Y274000D03*
X1006000Y199000D03*
G54D69*
X1670000Y292500D03*
G54D74*
X1695000D03*
G54D75*
X1524800Y292750D03*
G54D76*
X1499400D03*
X1474000D03*
G54D63*
X609000Y359000D03*
Y684000D03*
Y1009000D03*
Y1334000D03*
X509000Y359000D03*
Y684000D03*
Y1009000D03*
Y1334000D03*
X30000Y627000D03*
Y952000D03*
Y1277000D03*
Y1602000D03*
Y527000D03*
Y852000D03*
Y1177000D03*
Y1502000D03*
X520250Y628750D03*
Y953750D03*
Y1278750D03*
Y1603750D03*
Y582750D03*
Y907750D03*
Y1232750D03*
Y1557750D03*
X472750Y600250D03*
Y925250D03*
Y1250250D03*
Y1575250D03*
Y630250D03*
Y955250D03*
Y1280250D03*
Y1605250D03*
X361750Y576098D03*
Y901098D03*
Y1226098D03*
Y1551098D03*
X411750Y576098D03*
Y901098D03*
Y1226098D03*
Y1551098D03*
X603827Y461050D03*
Y786050D03*
Y1111050D03*
Y1436050D03*
X544427Y432950D03*
Y757950D03*
Y1082950D03*
Y1407950D03*
X468227Y432950D03*
Y757950D03*
Y1082950D03*
Y1407950D03*
Y471050D03*
Y796050D03*
Y1121050D03*
Y1446050D03*
X603827Y431050D03*
Y756050D03*
Y1081050D03*
Y1406050D03*
X646000Y540250D03*
Y865250D03*
Y1190250D03*
Y1515250D03*
Y490250D03*
Y815250D03*
Y1140250D03*
Y1465250D03*
G54D64*
X346900Y499150D03*
Y824150D03*
Y1149150D03*
Y1474150D03*
X372300Y499150D03*
Y824150D03*
Y1149150D03*
Y1474150D03*
X397700Y499150D03*
Y824150D03*
Y1149150D03*
Y1474150D03*
X423100Y499150D03*
Y824150D03*
Y1149150D03*
Y1474150D03*
X346900Y422950D03*
Y747950D03*
Y1072950D03*
Y1397950D03*
X372300Y422950D03*
Y747950D03*
Y1072950D03*
Y1397950D03*
X397700Y422950D03*
Y747950D03*
Y1072950D03*
Y1397950D03*
G54D65*
X423100Y422950D03*
Y747950D03*
Y1072950D03*
Y1397950D03*
G54D66*
X544427Y509150D03*
Y834150D03*
Y1159150D03*
Y1484150D03*
G54D67*
X406500Y349250D03*
Y674250D03*
Y999250D03*
Y1324250D03*
Y374250D03*
Y699250D03*
Y1024250D03*
Y1349250D03*
X659342Y347000D03*
Y672000D03*
Y997000D03*
Y1322000D03*
Y372000D03*
Y697000D03*
Y1022000D03*
Y1347000D03*
X328000Y348750D03*
Y673750D03*
Y998750D03*
Y1323750D03*
Y373750D03*
Y698750D03*
Y1023750D03*
Y1348750D03*
G54D68*
X167500Y435875D03*
Y760875D03*
Y1085875D03*
Y1410875D03*
X267500Y435875D03*
Y760875D03*
Y1085875D03*
Y1410875D03*
X86750Y622000D03*
Y947000D03*
Y1272000D03*
Y1597000D03*
Y522000D03*
Y847000D03*
Y1172000D03*
Y1497000D03*
X250000Y385000D03*
Y710000D03*
Y1035000D03*
Y1360000D03*
X175000Y363000D03*
Y688000D03*
Y1013000D03*
Y1338000D03*
X37500Y415000D03*
Y740000D03*
Y1065000D03*
Y1390000D03*
Y465000D03*
Y790000D03*
Y1115000D03*
Y1440000D03*
Y365000D03*
Y690000D03*
Y1015000D03*
Y1340000D03*
X825000Y462500D03*
Y787500D03*
Y1112500D03*
Y1437500D03*
Y412500D03*
Y737500D03*
Y1062500D03*
Y1387500D03*
Y562500D03*
Y887500D03*
Y1212500D03*
Y1537500D03*
Y512500D03*
Y837500D03*
Y1162500D03*
Y1487500D03*
X188500Y620000D03*
Y945000D03*
Y1270000D03*
Y1595000D03*
Y490000D03*
Y815000D03*
Y1140000D03*
Y1465000D03*
X288500Y620000D03*
Y945000D03*
Y1270000D03*
Y1595000D03*
Y490000D03*
Y815000D03*
Y1140000D03*
Y1465000D03*
X124000Y599000D03*
Y924000D03*
Y1249000D03*
Y1574000D03*
X146000Y524000D03*
Y849000D03*
Y1174000D03*
Y1499000D03*
G54D69*
X810000Y617500D03*
Y942500D03*
Y1267500D03*
Y1592500D03*
G54D74*
X835000Y617500D03*
Y942500D03*
Y1267500D03*
Y1592500D03*
G54D75*
X664800Y617750D03*
Y942750D03*
Y1267750D03*
Y1592750D03*
G54D76*
X639400Y617750D03*
Y942750D03*
Y1267750D03*
Y1592750D03*
X614000Y617750D03*
Y942750D03*
Y1267750D03*
Y1592750D03*
G54D63*
X1469000Y359000D03*
Y684000D03*
Y1009000D03*
Y1334000D03*
X1369000Y359000D03*
Y684000D03*
Y1009000D03*
Y1334000D03*
X890000Y627000D03*
Y952000D03*
Y1277000D03*
Y1602000D03*
Y527000D03*
Y852000D03*
Y1177000D03*
Y1502000D03*
X1380250Y628750D03*
Y953750D03*
Y1278750D03*
Y1603750D03*
Y582750D03*
Y907750D03*
Y1232750D03*
Y1557750D03*
X1332750Y600250D03*
Y925250D03*
Y1250250D03*
Y1575250D03*
Y630250D03*
Y955250D03*
Y1280250D03*
Y1605250D03*
X1221750Y576098D03*
Y901098D03*
Y1226098D03*
Y1551098D03*
X1271750Y576098D03*
Y901098D03*
Y1226098D03*
Y1551098D03*
X1463827Y461050D03*
Y786050D03*
Y1111050D03*
Y1436050D03*
X1404427Y432950D03*
Y757950D03*
Y1082950D03*
Y1407950D03*
X1328227Y432950D03*
Y757950D03*
Y1082950D03*
Y1407950D03*
Y471050D03*
Y796050D03*
Y1121050D03*
Y1446050D03*
X1463827Y431050D03*
Y756050D03*
Y1081050D03*
Y1406050D03*
X1506000Y540250D03*
Y865250D03*
Y1190250D03*
Y1515250D03*
Y490250D03*
Y815250D03*
Y1140250D03*
Y1465250D03*
G54D64*
X1206900Y499150D03*
Y824150D03*
Y1149150D03*
Y1474150D03*
X1232300Y499150D03*
Y824150D03*
Y1149150D03*
Y1474150D03*
X1257700Y499150D03*
Y824150D03*
Y1149150D03*
Y1474150D03*
X1283100Y499150D03*
Y824150D03*
Y1149150D03*
Y1474150D03*
X1206900Y422950D03*
Y747950D03*
Y1072950D03*
Y1397950D03*
X1232300Y422950D03*
Y747950D03*
Y1072950D03*
Y1397950D03*
X1257700Y422950D03*
Y747950D03*
Y1072950D03*
Y1397950D03*
G54D65*
X1283100Y422950D03*
Y747950D03*
Y1072950D03*
Y1397950D03*
G54D66*
X1404427Y509150D03*
Y834150D03*
Y1159150D03*
Y1484150D03*
G54D67*
X1266500Y349250D03*
Y674250D03*
Y999250D03*
Y1324250D03*
Y374250D03*
Y699250D03*
Y1024250D03*
Y1349250D03*
X1519342Y347000D03*
Y672000D03*
Y997000D03*
Y1322000D03*
Y372000D03*
Y697000D03*
Y1022000D03*
Y1347000D03*
X1188000Y348750D03*
Y673750D03*
Y998750D03*
Y1323750D03*
Y373750D03*
Y698750D03*
Y1023750D03*
Y1348750D03*
G54D68*
X1027500Y435875D03*
Y760875D03*
Y1085875D03*
Y1410875D03*
X1127500Y435875D03*
Y760875D03*
Y1085875D03*
Y1410875D03*
X946750Y622000D03*
Y947000D03*
Y1272000D03*
Y1597000D03*
Y522000D03*
Y847000D03*
Y1172000D03*
Y1497000D03*
X1110000Y385000D03*
Y710000D03*
Y1035000D03*
Y1360000D03*
X1035000Y363000D03*
Y688000D03*
Y1013000D03*
Y1338000D03*
X897500Y415000D03*
Y740000D03*
Y1065000D03*
Y1390000D03*
Y465000D03*
Y790000D03*
Y1115000D03*
Y1440000D03*
Y365000D03*
Y690000D03*
Y1015000D03*
Y1340000D03*
X1685000Y462500D03*
Y787500D03*
Y1112500D03*
Y1437500D03*
Y412500D03*
Y737500D03*
Y1062500D03*
Y1387500D03*
Y562500D03*
Y887500D03*
Y1212500D03*
Y1537500D03*
Y512500D03*
Y837500D03*
Y1162500D03*
Y1487500D03*
X1048500Y620000D03*
Y945000D03*
Y1270000D03*
Y1595000D03*
Y490000D03*
Y815000D03*
Y1140000D03*
Y1465000D03*
X1148500Y620000D03*
Y945000D03*
Y1270000D03*
Y1595000D03*
Y490000D03*
Y815000D03*
Y1140000D03*
Y1465000D03*
X984000Y599000D03*
Y924000D03*
Y1249000D03*
Y1574000D03*
X1006000Y524000D03*
Y849000D03*
Y1174000D03*
Y1499000D03*
G54D69*
X1670000Y617500D03*
Y942500D03*
Y1267500D03*
Y1592500D03*
G54D74*
X1695000Y617500D03*
Y942500D03*
Y1267500D03*
Y1592500D03*
G54D75*
X1524800Y617750D03*
Y942750D03*
Y1267750D03*
Y1592750D03*
G54D76*
X1499400Y617750D03*
Y942750D03*
Y1267750D03*
Y1592750D03*
X1474000Y617750D03*
Y942750D03*
Y1267750D03*
Y1592750D03*
G54D31*
X712000Y59250D02*
G01X682000D01*
Y89250*
X711000Y153250D02*
G01X681000D01*
Y123250*
X745000Y152250D02*
G01X775000D01*
Y122250*
X745000Y59250D02*
G01X775000D01*
Y89250*
X1572000Y59250D02*
G01X1542000D01*
Y89250*
X1571000Y153250D02*
G01X1541000D01*
Y123250*
X1605000Y152250D02*
G01X1635000D01*
Y122250*
X1605000Y59250D02*
G01X1635000D01*
Y89250*
X712000Y384250D02*
G01X682000D01*
Y414250*
X712000Y709250D02*
G01X682000D01*
Y739250*
X712000Y1034250D02*
G01X682000D01*
Y1064250*
X712000Y1359250D02*
G01X682000D01*
Y1389250*
X711000Y478250D02*
G01X681000D01*
Y448250*
X711000Y803250D02*
G01X681000D01*
Y773250*
X711000Y1128250D02*
G01X681000D01*
Y1098250*
X711000Y1453250D02*
G01X681000D01*
Y1423250*
X745000Y477250D02*
G01X775000D01*
Y447250*
X745000Y802250D02*
G01X775000D01*
Y772250*
X745000Y1127250D02*
G01X775000D01*
Y1097250*
X745000Y1452250D02*
G01X775000D01*
Y1422250*
X745000Y384250D02*
G01X775000D01*
Y414250*
X745000Y709250D02*
G01X775000D01*
Y739250*
X745000Y1034250D02*
G01X775000D01*
Y1064250*
X745000Y1359250D02*
G01X775000D01*
Y1389250*
X1572000Y384250D02*
G01X1542000D01*
Y414250*
X1572000Y709250D02*
G01X1542000D01*
Y739250*
X1572000Y1034250D02*
G01X1542000D01*
Y1064250*
X1572000Y1359250D02*
G01X1542000D01*
Y1389250*
X1571000Y478250D02*
G01X1541000D01*
Y448250*
X1571000Y803250D02*
G01X1541000D01*
Y773250*
X1571000Y1128250D02*
G01X1541000D01*
Y1098250*
X1571000Y1453250D02*
G01X1541000D01*
Y1423250*
X1605000Y477250D02*
G01X1635000D01*
Y447250*
X1605000Y802250D02*
G01X1635000D01*
Y772250*
X1605000Y1127250D02*
G01X1635000D01*
Y1097250*
X1605000Y1452250D02*
G01X1635000D01*
Y1422250*
X1605000Y384250D02*
G01X1635000D01*
Y414250*
X1605000Y709250D02*
G01X1635000D01*
Y739250*
X1605000Y1034250D02*
G01X1635000D01*
Y1064250*
X1605000Y1359250D02*
G01X1635000D01*
Y1389250*
M02*
