%FSAX44Y44*%
%MOMM*%
G71*
G01*
G75*
G04 Layer_Physical_Order=2*
G04 Layer_Color=16711680*
%ADD10C,0.2000*%
%ADD11C,0.3000*%
%ADD12C,1.0000*%
%ADD13R,0.9000X0.8000*%
%ADD14R,1.4000X2.8000*%
%ADD15R,1.4000X1.2000*%
%ADD16R,2.0000X3.2000*%
%ADD17R,1.2500X1.7000*%
%ADD18R,1.7000X1.2500*%
G04:AMPARAMS|DCode=19|XSize=1.8mm|YSize=0.9mm|CornerRadius=0.225mm|HoleSize=0mm|Usage=FLASHONLY|Rotation=0.000|XOffset=0mm|YOffset=0mm|HoleType=Round|Shape=RoundedRectangle|*
%AMROUNDEDRECTD19*
21,1,1.8000,0.4500,0,0,0.0*
21,1,1.3500,0.9000,0,0,0.0*
1,1,0.4500,0.6750,-0.2250*
1,1,0.4500,-0.6750,-0.2250*
1,1,0.4500,-0.6750,0.2250*
1,1,0.4500,0.6750,0.2250*
%
%ADD19ROUNDEDRECTD19*%
%ADD20P,1.0824X8X112.5*%
%ADD21R,1.0000X1.3000*%
%ADD22R,1.1000X1.7000*%
%ADD23R,2.5000X1.2000*%
%ADD24C,1.1000*%
%ADD25C,1.0000*%
%ADD26C,0.5000*%
%ADD27C,0.4000*%
%ADD28C,0.3500*%
%ADD29C,1.8000*%
%ADD30R,1.8000X1.8000*%
G04:AMPARAMS|DCode=31|XSize=2mm|YSize=2mm|CornerRadius=0.5mm|HoleSize=0mm|Usage=FLASHONLY|Rotation=270.000|XOffset=0mm|YOffset=0mm|HoleType=Round|Shape=RoundedRectangle|*
%AMROUNDEDRECTD31*
21,1,2.0000,1.0000,0,0,270.0*
21,1,1.0000,2.0000,0,0,270.0*
1,1,1.0000,-0.5000,-0.5000*
1,1,1.0000,-0.5000,0.5000*
1,1,1.0000,0.5000,0.5000*
1,1,1.0000,0.5000,-0.5000*
%
%ADD31ROUNDEDRECTD31*%
%ADD32C,2.0000*%
%ADD33O,2.0000X1.5000*%
%ADD34O,1.5000X2.0000*%
%ADD35C,2.5000*%
%ADD36R,1.5000X2.0000*%
%ADD37R,1.6000X1.6000*%
%ADD38C,1.6000*%
%ADD39C,0.9000*%
G36*
X00442500Y00217500D02*
X00465000Y00195000D01*
X00477500Y00182500D01*
Y00141924D01*
X00471626Y00136050D01*
X00428950D01*
X00412500Y00152500D01*
X00355675Y00152500D01*
X00337500Y00170676D01*
X00337500Y00190000D01*
X00356243Y00208743D01*
X00401693D01*
X00410451Y00217500D01*
X00442500Y00217500D01*
D02*
G37*
G36*
X00853883Y00313617D02*
Y00011383D01*
X00848618Y00006118D01*
X00612414D01*
Y00050720D01*
X00595000Y00068134D01*
Y00121492D01*
X00596899Y00122745D01*
X00598059Y00122125D01*
X00600886Y00121267D01*
X00603827Y00120977D01*
X00606767Y00121267D01*
X00609595Y00122125D01*
X00612201Y00123518D01*
X00614485Y00125392D01*
X00616359Y00127676D01*
X00617752Y00130282D01*
X00618610Y00133110D01*
X00618899Y00136050D01*
X00618610Y00138990D01*
X00617752Y00141818D01*
X00616359Y00144424D01*
X00614485Y00146708D01*
X00612201Y00148582D01*
X00610000Y00149759D01*
Y00208000D01*
X00587500Y00230500D01*
Y00318883D01*
X00848617D01*
X00853883Y00313617D01*
D02*
G37*
G36*
X00342500Y00123220D02*
X00414280D01*
X00432500Y00105000D01*
Y00082500D01*
X00440000Y00075000D01*
X00493180D01*
X00502500Y00084320D01*
Y00100000D01*
X00518762Y00116262D01*
X00519935Y00115776D01*
Y00066634D01*
X00514296Y00060994D01*
X00512390Y00060743D01*
X00509957Y00059735D01*
X00507868Y00058132D01*
X00506265Y00056043D01*
X00505258Y00053611D01*
X00504914Y00051000D01*
X00505258Y00048390D01*
X00506265Y00045957D01*
X00507868Y00043868D01*
X00509957Y00042265D01*
X00512390Y00041258D01*
X00515000Y00040914D01*
X00517611Y00041258D01*
X00520043Y00042265D01*
X00522132Y00043868D01*
X00523735Y00045957D01*
X00524743Y00048390D01*
X00524994Y00050296D01*
X00532849Y00058151D01*
X00532849Y00058151D01*
X00534051Y00059718D01*
X00534807Y00061542D01*
X00535065Y00063500D01*
Y00120087D01*
X00535955Y00120977D01*
X00552500D01*
X00557500Y00115977D01*
Y00100187D01*
X00544427Y00087114D01*
Y00059013D01*
X00557500Y00045940D01*
Y00010000D01*
X00553618Y00006118D01*
X00311382D01*
X00307500Y00010000D01*
Y00134800D01*
X00330920D01*
X00342500Y00123220D01*
D02*
G37*
%LPC*%
G36*
X00342412Y00060108D02*
X00337412D01*
X00334149Y00059678D01*
X00331108Y00058419D01*
X00328497Y00056415D01*
X00326494Y00053804D01*
X00325234Y00050763D01*
X00324804Y00047500D01*
X00325234Y00044237D01*
X00326494Y00041196D01*
X00328497Y00038585D01*
X00331108Y00036581D01*
X00334149Y00035322D01*
X00337412Y00034892D01*
X00342412D01*
X00345676Y00035322D01*
X00348716Y00036581D01*
X00351327Y00038585D01*
X00353331Y00041196D01*
X00354591Y00044237D01*
X00355020Y00047500D01*
X00354591Y00050763D01*
X00353331Y00053804D01*
X00351327Y00056415D01*
X00348716Y00058419D01*
X00345676Y00059678D01*
X00342412Y00060108D01*
D02*
G37*
G36*
X00432500D02*
X00427500D01*
X00424237Y00059678D01*
X00421196Y00058419D01*
X00418585Y00056415D01*
X00416581Y00053804D01*
X00415322Y00050763D01*
X00414892Y00047500D01*
X00415322Y00044237D01*
X00416581Y00041196D01*
X00418585Y00038585D01*
X00421196Y00036581D01*
X00424237Y00035322D01*
X00427500Y00034892D01*
X00432500D01*
X00435763Y00035322D01*
X00438804Y00036581D01*
X00441415Y00038585D01*
X00443419Y00041196D01*
X00444678Y00044237D01*
X00445108Y00047500D01*
X00444678Y00050763D01*
X00443419Y00053804D01*
X00441415Y00056415D01*
X00438804Y00058419D01*
X00435763Y00059678D01*
X00432500Y00060108D01*
D02*
G37*
G36*
X00650000Y00288112D02*
X00646607Y00287666D01*
X00643444Y00286356D01*
X00640728Y00284272D01*
X00638645Y00281556D01*
X00638382Y00280923D01*
X00636218D01*
X00635956Y00281556D01*
X00633872Y00284272D01*
X00631156Y00286356D01*
X00627994Y00287666D01*
X00624600Y00288112D01*
X00621206Y00287666D01*
X00618044Y00286356D01*
X00615328Y00284272D01*
X00613245Y00281556D01*
X00611935Y00278394D01*
X00611488Y00275000D01*
X00611935Y00271606D01*
X00612414Y00270450D01*
Y00245000D01*
X00612757Y00242389D01*
X00613765Y00239957D01*
X00615368Y00237868D01*
X00621645Y00231590D01*
X00621024Y00229384D01*
X00619457Y00228735D01*
X00617368Y00227132D01*
X00615765Y00225043D01*
X00614758Y00222611D01*
X00614414Y00220000D01*
X00614758Y00217390D01*
X00615765Y00214957D01*
X00617368Y00212868D01*
X00619457Y00211265D01*
X00621890Y00210257D01*
X00624371Y00209931D01*
X00637435Y00196867D01*
Y00109585D01*
X00629296Y00101446D01*
X00627390Y00101195D01*
X00624957Y00100187D01*
X00622868Y00098584D01*
X00621265Y00096495D01*
X00620258Y00094063D01*
X00619914Y00091452D01*
X00620258Y00088842D01*
X00621265Y00086409D01*
X00622868Y00084320D01*
X00624957Y00082717D01*
X00627390Y00081709D01*
X00630000Y00081366D01*
X00632611Y00081709D01*
X00635043Y00082717D01*
X00637132Y00084320D01*
X00638735Y00086409D01*
X00639743Y00088842D01*
X00639994Y00090747D01*
X00650349Y00101103D01*
X00651551Y00102670D01*
X00652307Y00104494D01*
X00652565Y00106452D01*
Y00196045D01*
X00654565Y00197030D01*
X00655007Y00196690D01*
X00655217Y00194560D01*
X00656075Y00191732D01*
X00657468Y00189126D01*
X00659342Y00186842D01*
X00661626Y00184968D01*
X00664232Y00183575D01*
X00667060Y00182717D01*
X00670000Y00182428D01*
X00672941Y00182717D01*
X00675768Y00183575D01*
X00678374Y00184968D01*
X00678590Y00185145D01*
X00737435Y00126300D01*
Y00052500D01*
X00737693Y00050542D01*
X00738449Y00048718D01*
X00739651Y00047151D01*
X00752507Y00034295D01*
X00752757Y00032390D01*
X00753765Y00029957D01*
X00755368Y00027868D01*
X00757457Y00026265D01*
X00759890Y00025257D01*
X00762500Y00024914D01*
X00765111Y00025257D01*
X00767543Y00026265D01*
X00769632Y00027868D01*
X00771235Y00029957D01*
X00772243Y00032390D01*
X00772586Y00035000D01*
X00772243Y00037611D01*
X00771235Y00040043D01*
X00769632Y00042132D01*
X00767543Y00043735D01*
X00765111Y00044743D01*
X00763205Y00044994D01*
X00752565Y00055634D01*
Y00090282D01*
X00754228Y00091393D01*
X00754792Y00091160D01*
X00757402Y00090816D01*
X00757492Y00090828D01*
X00798312Y00050008D01*
X00799718Y00048929D01*
X00799775Y00048785D01*
X00799801Y00046710D01*
X00798895Y00046105D01*
X00797790Y00044451D01*
X00797402Y00042500D01*
Y00022500D01*
X00797790Y00020549D01*
X00798895Y00018895D01*
X00800549Y00017790D01*
X00802500Y00017402D01*
X00817500D01*
X00819451Y00017790D01*
X00821105Y00018895D01*
X00822210Y00020549D01*
X00822573Y00022376D01*
X00822922Y00022585D01*
X00824598Y00023023D01*
X00826085Y00021085D01*
X00828696Y00019081D01*
X00831737Y00017822D01*
X00835000Y00017392D01*
X00838263Y00017822D01*
X00841304Y00019081D01*
X00843915Y00021085D01*
X00845919Y00023696D01*
X00847178Y00026737D01*
X00847608Y00030000D01*
Y00035000D01*
X00847178Y00038263D01*
X00845919Y00041304D01*
X00843915Y00043915D01*
X00841304Y00045919D01*
X00839179Y00046799D01*
X00838615Y00048162D01*
X00837493Y00049624D01*
X00827124Y00059993D01*
X00825662Y00061115D01*
X00823959Y00061820D01*
X00822131Y00062060D01*
X00806229D01*
X00767477Y00100813D01*
X00767489Y00100902D01*
X00767145Y00103513D01*
X00766137Y00105945D01*
X00764534Y00108034D01*
X00762446Y00109637D01*
X00760013Y00110645D01*
X00757402Y00110988D01*
X00754792Y00110645D01*
X00754228Y00110411D01*
X00752565Y00111522D01*
Y00121624D01*
X00754413Y00122389D01*
X00780006Y00096795D01*
X00780257Y00094889D01*
X00781265Y00092457D01*
X00782868Y00090368D01*
X00784957Y00088765D01*
X00787390Y00087757D01*
X00790000Y00087414D01*
X00792610Y00087757D01*
X00795043Y00088765D01*
X00797132Y00090368D01*
X00798735Y00092457D01*
X00799743Y00094889D01*
X00800086Y00097500D01*
X00799743Y00100111D01*
X00798735Y00102543D01*
X00797132Y00104632D01*
X00795043Y00106235D01*
X00792610Y00107243D01*
X00790705Y00107493D01*
X00709983Y00188215D01*
X00710086Y00189000D01*
X00709743Y00191611D01*
X00708735Y00194043D01*
X00707132Y00196132D01*
X00705043Y00197735D01*
X00702610Y00198743D01*
X00700000Y00199086D01*
X00697390Y00198743D01*
X00694957Y00197735D01*
X00692868Y00196132D01*
X00692416Y00195543D01*
X00689762Y00195369D01*
X00684793Y00200338D01*
X00684783Y00200441D01*
X00683925Y00203268D01*
X00682533Y00205874D01*
X00680658Y00208158D01*
X00679411Y00209182D01*
X00679065Y00209632D01*
X00676976Y00211235D01*
X00674544Y00212243D01*
X00671933Y00212586D01*
X00669178D01*
X00632586Y00249178D01*
Y00264742D01*
X00633872Y00265728D01*
X00635956Y00268444D01*
X00636218Y00269077D01*
X00638382D01*
X00638645Y00268444D01*
X00640728Y00265728D01*
X00643444Y00263645D01*
X00646607Y00262335D01*
X00650000Y00261888D01*
X00653394Y00262335D01*
X00656556Y00263645D01*
X00659272Y00265728D01*
X00660302Y00267071D01*
X00661110Y00267043D01*
X00662398Y00266518D01*
X00662690Y00265049D01*
X00663795Y00263395D01*
X00665449Y00262290D01*
X00667400Y00261902D01*
X00669234D01*
X00727414Y00203722D01*
Y00190000D01*
X00727757Y00187390D01*
X00728765Y00184957D01*
X00730368Y00182868D01*
X00732457Y00181265D01*
X00734890Y00180257D01*
X00737500Y00179914D01*
X00740110Y00180257D01*
X00742543Y00181265D01*
X00744632Y00182868D01*
X00746235Y00184957D01*
X00747243Y00187390D01*
X00747586Y00190000D01*
Y00207900D01*
X00747243Y00210511D01*
X00746235Y00212943D01*
X00744632Y00215032D01*
X00688498Y00271166D01*
Y00283000D01*
X00688110Y00284951D01*
X00687005Y00286605D01*
X00685351Y00287710D01*
X00683400Y00288098D01*
X00667400D01*
X00665449Y00287710D01*
X00663795Y00286605D01*
X00662690Y00284951D01*
X00662398Y00283483D01*
X00661110Y00282958D01*
X00660302Y00282929D01*
X00659272Y00284272D01*
X00656556Y00286356D01*
X00653394Y00287666D01*
X00650000Y00288112D01*
D02*
G37*
G36*
X00685000Y00060108D02*
X00681737Y00059678D01*
X00678696Y00058419D01*
X00676085Y00056415D01*
X00674081Y00053804D01*
X00672822Y00050763D01*
X00672392Y00047500D01*
Y00042500D01*
X00672822Y00039237D01*
X00674081Y00036196D01*
X00676085Y00033585D01*
X00678696Y00031581D01*
X00681737Y00030322D01*
X00685000Y00029892D01*
X00688263Y00030322D01*
X00691304Y00031581D01*
X00693915Y00033585D01*
X00695919Y00036196D01*
X00697178Y00039237D01*
X00697608Y00042500D01*
Y00047500D01*
X00697178Y00050763D01*
X00695919Y00053804D01*
X00693915Y00056415D01*
X00691304Y00058419D01*
X00688263Y00059678D01*
X00685000Y00060108D01*
D02*
G37*
G36*
X00825000Y00255085D02*
X00821570Y00254747D01*
X00818271Y00253746D01*
X00815231Y00252121D01*
X00812566Y00249934D01*
X00810379Y00247270D01*
X00808754Y00244230D01*
X00807753Y00240931D01*
X00807415Y00237500D01*
X00807753Y00234069D01*
X00808754Y00230771D01*
X00810379Y00227731D01*
X00812566Y00225066D01*
X00815231Y00222879D01*
X00818271Y00221254D01*
X00821570Y00220253D01*
X00825000Y00219916D01*
X00828431Y00220253D01*
X00831730Y00221254D01*
X00834770Y00222879D01*
X00837434Y00225066D01*
X00839621Y00227731D01*
X00841246Y00230771D01*
X00842247Y00234069D01*
X00842585Y00237500D01*
X00842247Y00240931D01*
X00841246Y00244230D01*
X00839621Y00247270D01*
X00837434Y00249934D01*
X00834770Y00252121D01*
X00831730Y00253746D01*
X00828431Y00254747D01*
X00825000Y00255085D01*
D02*
G37*
G36*
Y00205085D02*
X00821570Y00204747D01*
X00818271Y00203746D01*
X00815231Y00202121D01*
X00812566Y00199934D01*
X00810379Y00197270D01*
X00808754Y00194230D01*
X00807753Y00190931D01*
X00807415Y00187500D01*
X00807753Y00184069D01*
X00808754Y00180771D01*
X00810379Y00177731D01*
X00812566Y00175066D01*
X00815231Y00172879D01*
X00818271Y00171254D01*
X00821570Y00170253D01*
X00825000Y00169916D01*
X00828431Y00170253D01*
X00831730Y00171254D01*
X00834770Y00172879D01*
X00837434Y00175066D01*
X00839621Y00177731D01*
X00841246Y00180771D01*
X00842247Y00184069D01*
X00842585Y00187500D01*
X00842247Y00190931D01*
X00841246Y00194230D01*
X00839621Y00197270D01*
X00837434Y00199934D01*
X00834770Y00202121D01*
X00831730Y00203746D01*
X00828431Y00204747D01*
X00825000Y00205085D01*
D02*
G37*
G36*
X00346900Y00112071D02*
X00343245Y00111590D01*
X00339840Y00110179D01*
X00336915Y00107935D01*
X00334671Y00105010D01*
X00333260Y00101605D01*
X00332779Y00097950D01*
X00333260Y00094295D01*
X00334671Y00090890D01*
X00336915Y00087965D01*
X00339840Y00085721D01*
X00343245Y00084310D01*
X00346900Y00083829D01*
X00350555Y00084310D01*
X00353960Y00085721D01*
X00356885Y00087965D01*
X00358848Y00090524D01*
X00359191Y00090626D01*
X00360009Y00090626D01*
X00360352Y00090524D01*
X00362315Y00087965D01*
X00365240Y00085721D01*
X00368645Y00084310D01*
X00372300Y00083829D01*
X00375955Y00084310D01*
X00379360Y00085721D01*
X00382285Y00087965D01*
X00384529Y00090890D01*
X00385940Y00094295D01*
X00386421Y00097950D01*
X00385940Y00101605D01*
X00384529Y00105010D01*
X00382285Y00107935D01*
X00379360Y00110179D01*
X00375955Y00111590D01*
X00372300Y00112071D01*
X00368645Y00111590D01*
X00365240Y00110179D01*
X00362315Y00107935D01*
X00360352Y00105376D01*
X00360009Y00105274D01*
X00359191Y00105274D01*
X00358848Y00105377D01*
X00356885Y00107935D01*
X00353960Y00110179D01*
X00350555Y00111590D01*
X00346900Y00112071D01*
D02*
G37*
G36*
X00817500Y00307598D02*
X00802500D01*
X00800549Y00307210D01*
X00798895Y00306105D01*
X00797790Y00304451D01*
X00797402Y00302500D01*
Y00282500D01*
X00797790Y00280549D01*
X00798895Y00278895D01*
X00800549Y00277790D01*
X00802500Y00277402D01*
X00817500D01*
X00819451Y00277790D01*
X00821105Y00278895D01*
X00822210Y00280549D01*
X00822598Y00282500D01*
Y00302500D01*
X00822210Y00304451D01*
X00821105Y00306105D01*
X00819451Y00307210D01*
X00817500Y00307598D01*
D02*
G37*
%LPD*%
D11*
X00175000Y00038000D02*
X00177000Y00040000D01*
D12*
X00510000Y00097950D02*
D03*
X00642500Y00015000D02*
D03*
X00681000Y00020000D02*
D03*
X00357500Y00060000D02*
D03*
X00515000Y00051000D02*
D03*
X00632485Y00070000D02*
D03*
X00624501Y00220000D02*
D03*
X00691439Y00110875D02*
D03*
X00597500Y00272500D02*
D03*
X00840000Y00267500D02*
D03*
X00615000Y00305000D02*
D03*
X00490000Y00052500D02*
D03*
X00757402Y00100902D02*
D03*
X00762500Y00035000D02*
D03*
X00630000Y00091452D02*
D03*
X00455000Y00017500D02*
D03*
X00790000Y00097500D02*
D03*
X00737500Y00190000D02*
D03*
X00700000Y00189000D02*
D03*
X00773326Y00252500D02*
D03*
X00654025Y00237500D02*
D03*
X00720000Y00190586D02*
D03*
X00697500Y00157500D02*
D03*
X00694647Y00069067D02*
D03*
X00725951Y00091452D02*
D03*
X00782451Y00013952D02*
D03*
D25*
X00674143Y00271257D02*
Y00277500D01*
X00620000Y00199890D02*
Y00202500D01*
X00737500Y00190000D02*
Y00207900D01*
X00674143Y00271257D02*
X00737500Y00207900D01*
X00175000Y00038000D02*
X00175501D01*
X00177500Y00040000D01*
X00037500Y00090000D02*
X00146625D01*
X00167500Y00110875D01*
X00235875D02*
X00267500D01*
X00415157Y00252343D02*
X00416960Y00250540D01*
X00167500Y00110875D02*
X00168375Y00111751D01*
X00416960Y00250540D02*
X00467000D01*
X00317500Y00204686D02*
X00363912Y00251098D01*
X00317500Y00117500D02*
Y00204686D01*
X00185000Y00295000D02*
X00235875Y00244125D01*
X00622500Y00245000D02*
Y00277000D01*
Y00245000D02*
X00665000Y00202500D01*
X00177000Y00040000D02*
X00235875Y00098875D01*
Y00244125D01*
X00168375Y00111751D02*
Y00145876D01*
X00185000Y00162500D01*
Y00165000D01*
X00090000Y00195000D02*
X00117500Y00222500D01*
X00195000D01*
X00665000Y00202500D02*
X00671933D01*
X00465495Y00252995D02*
X00502500Y00215990D01*
X00471100Y00110900D02*
X00478118D01*
X00502500Y00135282D01*
Y00215990D01*
D26*
X00515000Y00051000D02*
X00527500Y00063500D01*
Y00123220D01*
X00532868Y00128588D01*
Y00174068D02*
X00543688Y00184888D01*
X00532868Y00128588D02*
Y00174068D01*
X00630000Y00091452D02*
X00645000Y00106452D01*
X00745000Y00052500D02*
X00762500Y00035000D01*
X00624501Y00220500D02*
X00645000Y00200000D01*
Y00106452D02*
Y00200000D01*
X00698500Y00189000D02*
X00700000D01*
X00698500D02*
X00790000Y00097500D01*
X00671933Y00202500D02*
X00745000Y00129433D01*
Y00052500D02*
Y00129433D01*
D27*
X00832500Y00037132D02*
Y00044631D01*
X00822131Y00055000D02*
X00832500Y00044631D01*
X00757402Y00100902D02*
X00803304Y00055000D01*
X00822131D01*
D29*
X00346900Y00174150D02*
D03*
X00372300Y00174150D02*
D03*
X00397700Y00174150D02*
D03*
X00423100Y00174150D02*
D03*
X00346900Y00097950D02*
D03*
X00372300Y00097950D02*
D03*
X00397700Y00097950D02*
D03*
D30*
X00423100Y00097950D02*
D03*
D31*
X00544427Y00184150D02*
D03*
D32*
X00603827Y00136050D02*
D03*
X00544427Y00107950D02*
D03*
X00468227D02*
D03*
Y00146050D02*
D03*
X00603827Y00106050D02*
D03*
X00620000Y00197500D02*
D03*
X00670000D02*
D03*
X00622500Y00037499D02*
D03*
X00547500D02*
D03*
X00470000Y00292499D02*
D03*
X00520000Y00292499D02*
D03*
X00363912Y00251098D02*
D03*
X00413912D02*
D03*
X00032501Y00292500D02*
D03*
X00032501Y00217500D02*
D03*
X00467000Y00250540D02*
D03*
X00513000D02*
D03*
D33*
X00430000Y00022500D02*
D03*
X00430000Y00047500D02*
D03*
X00339912Y00022500D02*
D03*
X00339912Y00047500D02*
D03*
D34*
X00660000Y00045000D02*
D03*
X00685000Y00045000D02*
D03*
X00835000Y00292500D02*
D03*
Y00032500D02*
D03*
D35*
X00167500Y00110875D02*
D03*
X00267500D02*
D03*
X00090000Y00295000D02*
D03*
X00090000Y00195000D02*
D03*
X00250000Y00060000D02*
D03*
X00175000Y00038000D02*
D03*
X00037500Y00090000D02*
D03*
Y00140000D02*
D03*
Y00040000D02*
D03*
X00825000Y00137500D02*
D03*
Y00087500D02*
D03*
Y00237500D02*
D03*
Y00187500D02*
D03*
X00185000Y00295000D02*
D03*
X00185000Y00165000D02*
D03*
X00285000Y00295000D02*
D03*
X00285000Y00165000D02*
D03*
D36*
X00810000Y00292500D02*
D03*
Y00032500D02*
D03*
D37*
X00675400Y00275000D02*
D03*
D38*
X00650000D02*
D03*
X00624600D02*
D03*
D39*
X00195000Y00222500D02*
D03*
M02*
